[{ "group": "2551", 
"token":"6EE6401237393414807A67AC829B104F16AC45575156CA2077F7EA8A1A59D54A", 
"apiKey":"EB17F8821BEB698B9F46C0D8C22142F8F8146DC72BCA28544722AA9CD6B25FC5AFFEBFA22360E1907877B94D55AB40BE7480EA17E86836B8BFC452F587A6AA89", 
"url":"https://test.idealss.net/lookup_client_locs" }]    
